<?xml version="1.0" encoding="UTF-8"?>
<svg viewBox="0 0 48 48" xmlns="http://www.w3.org/2000/svg" xmlns:xlink="http://www.w3.org/1999/xlink">
    <defs>
        <linearGradient id="a" x2="0" y1="543.8" y2="503.8" gradientUnits="userSpaceOnUse">
            <stop stop-color="#a1adb3" offset="0"/>
            <stop stop-color="#bfc7cb" offset="1"/>
        </linearGradient>
        <linearGradient id="b" x2="0" y1="537.8" y2="509.8" gradientTransform="translate(0-1047.6)" gradientUnits="userSpaceOnUse" xlink:href="#a"/>
        <linearGradient id="c" x2="0" y1="31" y2="17" gradientTransform="matrix(1 0 0-1 384.57 547.8)" gradientUnits="userSpaceOnUse">
            <stop stop-color="#1d1e1e" offset="0"/>
            <stop stop-color="#44484c" offset="1"/>
        </linearGradient>
    </defs>
    <g transform="translate(-384.57-499.8)">
        <ellipse cx="408.57" cy="523.8" rx="20" ry="20" fill="url(#a)"/>
        <ellipse transform="scale(1-1)" cx="408.57" cy="-523.8" rx="14" ry="14" fill="url(#b)"/>
        <path d="m408.57 530.8a1 1 0 0 1-1-1 1 1 0 0 1 1-1 1 1 0 0 1 1 1 1 1 0 0 1-1 1m-4.2285-1.7578a1 1 0 0 1-0.7207-0.29297 1 1 0 0 1 0-1.4141 1 1 0 0 1 1.4141 0 1 1 0 0 1 0 1.4141 1 1 0 0 1-0.69336 0.29297m8.457 0a1 1 0 0 1-0.69336-0.29297 1 1 0 0 1 0-1.4141 1 1 0 0 1 1.4141 0 1 1 0 0 1 0 1.4141 1 1 0 0 1-0.7207 0.29297m-4.2285-3.2422a2 2 0 0 1-2-2 2 2 0 0 1 2-2 2 2 0 0 1 2 2 2 2 0 0 1-2 2m-6-1a1 1 0 0 1-1-1 1 1 0 0 1 1-1 1 1 0 0 1 1 1 1 1 0 0 1-1 1m12 0a1 1 0 0 1-1-1 1 1 0 0 1 1-1 1 1 0 0 1 1 1 1 1 0 0 1-1 1m-10.258-4.2422a1 1 0 0 1-0.69141-0.29297 1 1 0 0 1 0-1.4141 1 1 0 0 1 1.4141 0 1 1 0 0 1 0 1.4141 1 1 0 0 1-0.72265 0.29297m8.5156 0a1 1 0 0 1-0.72265-0.29297 1 1 0 0 1 0-1.4141 1 1 0 0 1 1.4141 0 1 1 0 0 1 0 1.4141 1 1 0 0 1-0.69141 0.29297m-4.2578-1.7578a1 1 0 0 1-1-1 1 1 0 0 1 1-1 1 1 0 0 1 1 1 1 1 0 0 1-1 1" fill="url(#c)"/>
        <path transform="translate(384.57 499.8)" d="m43.979 23.418a20 20 0 0 1-19.979 19.582 20 20 0 0 1-19.979-19.418 20 20 0 0 0-0.02148 0.41797 20 20 0 0 0 20 20 20 20 0 0 0 20-20 20 20 0 0 0-0.021484-0.58203" fill="#737b81"/>
    </g>
</svg>
